2024H/esda2/designprosjekt/designnotat5/Data/buffer_out_resistance_signal.csv

#Digilent WaveForms Oscilloscope Acquisition
#Device Name: Discovery2
#Serial Number: SN:210321B80CB5
#Date Time: 2024-09-03 17:53:44.511
#Sample rate: 800000Hz
#Samples: 8192
#Trigger: Source: Channel 1 Type: Edge Condition: Rising Level: 0 V Hyst.: Auto HoldOff: 0 s
#Channel 1: Range: 500 mV/div Offset: -1.5 V Attenuation: 1 X Sample Mode: Average
#Channel 2: Range: 500 mV/div Offset: 0 V Attenuation: 1 X Sample Mode: Average
#Wavegen Channel 1: Running
#Mode: Simple
#Type: Sine
#Frequency: 1 kHz
#Period: 1 ms
#Amplitude: 500 mV
#Offset: 500 mV
#Symmetry: 50 %
#Phase: 0 °
#Power Supplies: ON
#Positive Supply: ON
#Voltage: 5 V
#Negative Supply: ON
#Voltage: -1 V

Time (s),Channel 1 (V),Channel 2 (V)
0.19761125,1.5338300101205256,0.03770568947752628
0.1976125,1.529812330457436,0.033674381603186865
0.19761375,1.5251250375171717,0.02930713140599147
0.197615,1.5214421644926668,0.02594770817736612
0.19761625,1.517089678191085,0.02158045798026438
0.1976175,1.5144112250823472,0.018892919397359972
0.19761875,1.510058738780664,0.014525669200167337
0.19762,1.5050366392019139,0.011166245971626009
0.19762125,1.5030277993703425,0.007806822743011353
0.1976225,1.498340506430083,0.003775514868675597
0.19762375000000001,1.4943228267669932,-0.0002557930056603109
0.197625,1.4903051471039948,-0.003951158557054091
0.19762625,1.4866222740794912,-0.0073105817856744006
0.1976275,1.4809305612234784,-0.012349716628588595
0.19762875,1.4789217213919783,-0.016381024502838185
0.19763,1.4749040417289059,-0.020076390054316908
0.19763125,1.4702167487886444,-0.024107697928644874
0.1976325,1.4672034890413956,-0.02612335186576875
0.19763375,1.463855422655491,-0.02914683277151278
0.197635,1.459502936353818,-0.033514082968704194
0.19763625,1.4558200633293237,-0.03687350619732496
0.1976375,1.45247199694349,-0.04090481407157455
0.19763875,1.446445477448875,-0.04627989123734945
0.19764,1.4441018309787257,-0.04930337214310172
0.19764125,1.439749344677144,-0.051990910725933565
0.1976425,1.4357316650140513,-0.0556862762774022
0.19764375,1.4310443720737902,-0.06106135344316946
0.19764500000000002,1.4280311123264622,-0.0634129497032228
0.19764625,1.4240134326634637,-0.06778019990032452
0.1976475,1.419660946361787,-0.07181150777466379
0.19764875,1.4166476866144737,-0.07483498868041423
0.19765,1.4139692335058072,-0.0775225272632473
0.19765125,1.4092819405655523,-0.08188977746043413
0.1976525,1.404929454263877,-0.08592108533476836
0.19765375,1.40124658123946,-0.08928050856330969
0.197655,1.3968940949377882,-0.09263993179192434
0.19765625,1.3935460285518722,-0.0966712396662624
0.1976575,1.3888587356116253,-0.10103848986344861
0.19765875,1.3865150891415416,-0.10406197076913581
0.19766,1.3814929895626984,-0.10876516328918533
0.19766125,1.3781449231767926,-0.11111675954922398
0.1976625,1.3751316634295438,-0.11447618277776378
0.19766375,1.3704443704892868,-0.1181715483292387
0.197665,1.3664266908262022,-0.12220285620357109
0.19766625,1.3634134310789534,-0.12522633710925693
0.1976675,1.3583913315001142,-0.12959358730644266
0.19766875,1.3553780717527886,-0.13295301053506253
0.19767,1.3520300053668717,-0.13664837608654323
0.19767125,1.34767751906529,-0.140679683960791
0.1976725,1.3449990659565512,-0.14403910718941207
0.19767375,1.3406465796548794,-0.14739853041802675
0.197675,1.3372985132690458,-0.15075795364656805
0.19767625,1.3342852535217264,-0.15411737687518273
0.1976775,1.3299327672200543,-0.15680491545808298
0.19767875000000001,1.3262498941955354,-0.16150810797814902
0.19768,1.320558181339621,-0.16654724282095873
0.19768125,1.3188841481466402,-0.1682269544352885
0.1976825,1.3141968552063856,-0.17192231998675975
0.19768375,1.3115184020977189,-0.17494580089244693
0.197685,1.3085051423504057,-0.17796928179820012
0.19768625,1.3034830427715536,-0.18267247431825298
0.19768750000000002,1.2998001697470678,-0.18603189754686003
0.19768875,1.2971217166384008,-0.18871943612969308
0.19769,1.2924344236981429,-0.19174291703544566
0.19769125,1.2890863573122422,-0.19510234026406031
0.1976925,1.2864079042035752,-0.19846176349260164
0.19769375,1.2830598378176732,-0.20148524439835713
0.197695,1.2783725448774108,-0.2058524945955533
0.19769625,1.275024478491579,-0.20954786014694707
0.1976975,1.2726808320214336,-0.21257134105270806
0.19769875,1.2676587324425919,-0.2152588796356031
0.19770000000000001,1.2656498926110225,-0.21861830286422634
0.19770125,1.2612974063094409,-0.22264961073847409
0.1977025,1.2576145332849376,-0.2256730916442351
0.19770375,1.253596853621868,-0.229368457195706
0.197705,1.251922820428951,-0.23239193810139322
0.19770625,1.2472355274887053,-0.23608730365286412
0.1977075,1.2438874611028001,-0.23911078455861826
0.19770875,1.2412090079941331,-0.24213426546430544
0.19771,1.2375261349696465,-0.2454936886929166
0.19771125,1.234847681860914,-0.24818122727581043
0.1977125,1.231499615474995,-0.2501968812130037
0.19771375,1.226812322534828,-0.2549000737329616
0.197715,1.22413386942609,-0.25825949696158473
0.19771625,1.220785803040182,-0.26094703554448
0.1977175,1.2174377366543498,-0.26397051645016584
0.19771875,1.2147592835456171,-0.2669939973559204
0.19772,1.211746023798298,-0.2696815359388115
0.19772125000000002,1.2077283441352205,-0.2720331321988558
0.1977225,1.2047150843879704,-0.27572849775025127
0.19772375,1.201032211363478,-0.278416036333149
0.197725,1.1983537582547485,-0.28177545956177064
0.19772625,1.1953404985074996,-0.2858067674360184
0.1977275,1.191992432121594,-0.2881583636960627
0.19772875,1.1889791723742722,-0.2911818446018116
0.19773,1.184961492711272,-0.29353344086179056
0.19773125,1.1826178462411205,-0.29655692176753706
0.1977325,1.1799393931323963,-0.2992444603504301
0.19773375,1.177595746662249,-0.30159605661047323
0.197735,1.173912873637832,-0.30529142216186866
0.19773625,1.1712344205291003,-0.30730707609904806
0.1977375,1.1672167408660168,-0.310666499327665
0.19773875,1.1638686744801832,-0.3143618648790604
0.19774,1.1618598346486277,-0.31604157649338516
0.19774125,1.1591813815399044,-0.31839317275341344
0.1977425,1.1568377350698218,-0.32040882669053733
0.19774375,1.154159281961099,-0.3237682499191383
0.197745,1.1501416022980209,-0.3274636154706073
0.19774625,1.1481327624664703,-0.32813550011635956
0.1977475,1.1454543093578047,-0.3321668079906074
0.19774875,1.1431106628876664,-0.3341824619277917
0.19775,1.1397625965017584,-0.33754188515640177
0.19775125,1.1360797234773412,-0.34022942373923487
0.1977525,1.1334012703686063,-0.34157319303069356
0.19775375,1.1313924305370584,-0.3449326162592986
0.19775500000000001,1.1287139774283217,-0.34728421251933667
0.19775625,1.1250311044039063,-0.3503076934250225
0.1977575,1.1233570712109389,-0.35232334736219967
0.19775875,1.1200090048250346,-0.35601871291365866
0.19776,1.1169957450777845,-0.3573624822050752
0.19776125,1.116326131800584,-0.3587062514965211
0.1977625,1.1133128720532743,-0.3613937900794116
0.19776375000000002,1.110969225583132,-0.3640813286622995
0.197765,1.107955965835882,-0.3664329249222784
0.19776625,1.1069515459200947,-0.3684485788594478
0.1977675,1.1029338662570185,-0.37012829047376966
0.19776875,1.1002554131483515,-0.373487713702311
0.19777,1.0979117666782148,-0.37449554067091145
0.19777125,1.095568120208081,-0.3778549638995201
0.1977725,1.0935592803765817,-0.38020656015949794
0.19777375,1.0902112139906863,-0.3825581564195293
0.197775,1.088871987436317,-0.3835659833881235
0.19777625000000001,1.087197954243342,-0.38625352197100943
0.1977775,1.083515081218927,-0.3882691759081333
0.19777875,1.0815062413873728,-0.3909567144910207
0.19778,1.0794974015558314,-0.3923004837824692
0.19778125,1.0778233683629155,-0.39398019539673906
0.1977825,1.074475301977021,-0.3970036763024827
0.19778375,1.0751449152541783,-0.3966677339796409
0.197785,1.072131655506928,-0.399355272562474
0.19778625,1.0687835891210251,-0.40237875346822366
0.1977875,1.0674443625666525,-0.40338658043682135
0.19778875,1.0657703293736933,-0.40607411901970386
0.19779,1.0634266829036096,-0.4077538306339745
0.19779125,1.0610830364334751,-0.41010542689400054
0.1977925,1.0594090032405195,-0.4117851385083057
0.19779375,1.0574001634090195,-0.4131289077997223
0.197795,1.0543869036617126,-0.4148086194140265
0.19779625,1.0533824837459307,-0.41682427335119254
0.19779750000000001,1.0513736439144006,-0.4181680426426349
0.19779875,1.050704030637234,-0.4191758696111973
0.1978,1.0486951908056972,-0.42152746587121903
0.19780125,1.0470211576127375,-0.4225352928398094
0.1978025,1.0446775111426552,-0.4242150044540793
0.19780375,1.0426686713111075,-0.4262306583912464
0.197805,1.0416642513953311,-0.4272384853598354
0.19780625,1.039990218202414,-0.42891819697410605
0.1978075,1.0389857982866355,-0.4295900816198391
0.19780875,1.037311765093683,-0.43227762020271976
0.19781,1.03496811862356,-0.43362138949416623
0.19781125,1.0339636987078105,-0.4349651587855822
0.1978125,1.0326244721534492,-0.43563704343131
0.19781375,1.0312852455990797,-0.43698081272276046
0.197815,1.0289415991289963,-0.43899646665988523
0.19781625,1.0279371792132126,-0.43966835130561976
0.1978175,1.0259283393816745,-0.442355889888499
0.19781875,1.024923919465925,-0.44302777453420694
0.19782,1.0235846929115655,-0.4433637168570723
0.19782125,1.022580272995793,-0.4450434284713711
0.1978225,1.021910659718603,-0.4453793707942436
0.19782375,1.0202366265256864,-0.4470590824085143
0.197825,1.0185625933327331,-0.4490747363456806
0.19782625,1.016888560139791,-0.4494106786685438
0.1978275,1.017223366778374,-0.4497466209913977
0.19782875,1.0148797203082651,-0.45176227492855064
0.19783,1.0142101070310796,-0.4524341595742779
0.19783125000000001,1.0138753003924887,-0.4531060442200011
0.1978325,1.0135404937539054,-0.45377792886570906
0.19783375,1.01186646056096,-0.454785755834292
0.197835,1.0108620406451807,-0.45579358280287635
0.19783625,1.0088532008136806,-0.4568014097714387
0.1978375,1.0068443609821365,-0.459153006031458
0.19783875,1.007513974259304,-0.45948894835432463
0.19784000000000002,1.0061747477049634,-0.4601608330000364
0.19784125,1.0068443609821298,-0.45982489067718246
0.1978425,1.0051703277891895,-0.46116865996861744
0.19784375,1.0048355211505844,-0.4608327176457705
0.197845,1.0028266813190843,-0.46217648693718705
0.19784625,1.0018222614033054,-0.46318431390577375
0.1978475,1.0018222614033114,-0.4638561985514907
0.19784875,1.002826681319061,-0.46352025622863674
0.19785,1.0008178414875448,-0.46419214087435035
0.19785125,1.0004830348489473,-0.46486402552007694
0.19785250000000001,0.9994786149331886,-0.4665437371343574
0.19785375,0.999813421571772,-0.465535910165795
0.197855,0.9988090016560085,-0.46687967945722525
0.19785625,0.9991438082945837,-0.4651999678429483
0.1978575,0.9974697751016677,-0.4675515641029262
0.19785875,0.9964653551858897,-0.46788750642580434
0.19786,0.9981393883788278,-0.4672156217800912
0.19786125,0.997469775101661,-0.46822344874865357
0.1978625,0.9964653551858925,-0.4678875064258062
0.19786375,0.9961305485473008,-0.4685593910715225
0.197865,0.9964653551858823,-0.4682234487486702
0.19786625,0.9957957419087156,-0.4688953333943785
0.1978675,0.9947913219929457,-0.47057504500867936
0.19786875,0.9954609352701228,-0.46889533339438494
0.19787,0.9954609352701228,-0.46923127571723905
0.19787125,0.9961305485472981,-0.4688953333943837
0.1978725,0.9961305485472971,-0.46956721804010004
0.19787375000000001,0.9954609352701193,-0.4692312757172386
0.197875,0.9951261286315359,-0.46889533339438444
0.19787625,0.9951261286315356,-0.46956721804010143
0.1978775,0.9961305485472917,-0.46956721804009866
0.19787875,0.995126128631542,-0.4692312757172447
0.19788,0.9947913219929461,-0.4695672180401011
0.19788125,0.9951261286315397,-0.46923127571724027
0.1978825,0.9961305485472898,-0.46889533339438616
0.19788375,0.9968001618244745,-0.46822344874866656
0.197885,0.9961305485472999,-0.4675515641029473
0.19788625,0.9961305485473063,-0.4682234487486545
0.1978875,0.9968001618244727,-0.46721562178009257
0.19788875,0.997469775101654,-0.4668796794572268
0.19789,0.9974697751016564,-0.4668796794572268
0.19789125,0.9978045817402397,-0.4668796794572268
0.1978925,0.9978045817402426,-0.46654373713436825
0.19789375,0.9994786149331852,-0.46553591016578794
0.197895,0.9994786149331852,-0.465199967842934
0.19789625,1.0001482282103593,-0.46553591016578794
0.1978975,1.0004830348489502,-0.4651999678429277
0.19789875,1.0001482282103762,-0.4638561985514901
0.1979,1.0018222614032928,-0.46352025622863596
0.19790125,1.0021570680418932,-0.4628483715829155
0.1979025,1.0028266813190745,-0.4625124292600496
0.19790375,1.003496294596241,-0.46150460229148765
0.197905,1.0031614879576602,-0.4618405446143358
0.19790625,1.0045007145120217,-0.46083271764575356
0.19790750000000001,1.0071791676207216,-0.45915300603146564
0.19790875,1.0071791676207216,-0.4594889483543196
0.19791,1.0065095543435443,-0.45814517906288427
0.19791125,1.0065095543435663,-0.45814517906287205
0.1979125,1.0095228140908152,-0.4564654674486021
0.19791375,1.010862040645193,-0.45579358280287025
0.197915,1.0111968472837898,-0.4547857558342819
0.19791625000000002,1.0125360738381493,-0.45277010189713124
0.1979175,1.0135404937538988,-0.4524341595742773
0.19791875,1.0128708804767326,-0.4524341595742727
0.19792,1.0155493335854406,-0.4510903902828268
0.19792125,1.016218946862607,-0.4497466209914103
0.1979225,1.0168885601397888,-0.4490747363456828
0.19792375,1.0182277866941547,-0.44840285169995586
0.197925,1.020236626525655,-0.4470590824085393
0.19792625,1.021575853080024,-0.44504342847137696
0.1979275,1.0215758530800343,-0.4447074861485075
0.19792875000000001,1.0232498862729944,-0.4436996591799164
0.19793,1.0255935327430779,-0.4420199475656458
0.19793125,1.026597952658856,-0.4389964666599033
0.1979325,1.0262631460202938,-0.43966835130560833
0.19793375,1.0296112124061259,-0.43798863969133844
0.197935,1.0309504389605055,-0.4369808127227481
0.19793625,1.0316200522376942,-0.4359729857541536
0.1979375,1.0336288920691945,-0.4329495048484664
0.19793875,1.0353029252621513,-0.43160573555700293
0.19794,1.036976958455103,-0.43059790858841945
0.19794125,1.0379813783708756,-0.4305979085884042
0.1979425,1.038985798286625,-0.4289181969741343
0.19794375,1.0413294447567516,-0.42757442768268555
0.197945,1.0426686713111142,-0.4238790621312265
0.19794625,1.0440078978654477,-0.4228712351626641
0.1979475,1.0453471244198105,-0.4225352928397966
0.19794875,1.0466863509741846,-0.4211915235483487
0.19795000000000001,1.0507040306372377,-0.418839927288329
0.19795125,1.0513736439144044,-0.4174961579969124
0.1979525,1.053047677107353,-0.41648833102832317
0.19795375,1.0550565169388944,-0.4131289077997345
0.197955,1.0567305501318112,-0.4131289077997345
0.19795625,1.0580697766861764,-0.4097694845711458
0.1979575,1.0597438098791374,-0.40876165760255223
0.19795875,1.0627570696263862,-0.40674600366542835
0.19796,1.0644311028193545,-0.4047303497282586
0.19796125,1.0667747492894837,-0.4030506381139492
0.1979625,1.0681139758438631,-0.40103498417677624
0.19796375,1.071127235591112,-0.3986833879167984
0.197965,1.0717968488683094,-0.39733961862534517
0.19796625,1.0748101086156139,-0.39532396468818326
0.1979675,1.0761493351699474,-0.3943161377196209
0.19796875,1.079162594917249,-0.39162859913674364
0.19797,1.0805018214716207,-0.39028482984528784
0.19797125,1.0831802745802876,-0.3872613489396007
0.1979725,1.0861935343276,-0.3845738103567051
0.19797375,1.0882023741591487,-0.382894098742392
0.197975,1.0895416007135332,-0.3812143871280764
0.19797625,1.0935592803765333,-0.3785268485452433
0.1979775,1.0952333135695038,-0.3765111946080697
0.19797875,1.0972421534010481,-0.37449554067090196
0.19798,1.0992509932325476,-0.3728158290566321
0.19798125,1.10159463970268,-0.3697923481508909
0.1979825,1.1059471260043383,-0.3674407518908628
0.19798375000000001,1.1059471260043798,-0.3664329249222495
0.197985,1.1102996123059634,-0.36240161704799995
0.19798625,1.1113040322217562,-0.3613937900793969
0.1979875,1.1143172919690663,-0.3587062514965064
0.19798875,1.1163261318005655,-0.35635465523652854
0.19799,1.1186697782706982,-0.3543390012993559
0.19799125,1.122687457933774,-0.35198740503931863
0.19799250000000002,1.1246962977653265,-0.347956097165006
0.19799375,1.1273747508739922,-0.3462763855507361
0.197995,1.1290487840669545,-0.3435888469678454
0.19799625,1.132396850452864,-0.33989348141638087
0.1979975,1.136079723477281,-0.33754188515640193
0.19799875,1.1380885633088365,-0.3365340581878084
0.198,1.1407670164175654,-0.3345184042506321
0.19800125,1.144115082803399,-0.3311589810220908
0.1980025,1.1461239226349558,-0.3288073847620509
0.19800375,1.14880237574368,-0.32611984617915657
0.19800500000000001,1.1514808288524154,-0.322760422950552
0.19800625,1.1551637018768324,-0.3204088266905731
0.1980075,1.158176961624151,-0.31772128810768285
0.19800875,1.1601858014557065,-0.3146978072019361
0.19801,1.1635338678415386,-0.3126821532648122
0.19801125,1.1655427076730942,-0.3096586723590659
0.1980125,1.169225580697586,-0.307643018421889
0.19801375,1.172238840444836,-0.3042835951933477
0.198015,1.174582486914978,-0.3015960566104489
0.19801625,1.1786001665780572,-0.29823663338183626
0.1980175,1.1819482329639563,-0.2945412678303646
0.19801875,1.184291879434039,-0.2915177869246788
0.19802,1.188309559097117,-0.28950213298750216
0.19802125,1.1903183989286696,-0.2871505367274655
0.1980225,1.1936664653145033,-0.28379111349892416
0.19802375,1.196010111784647,-0.2814395172388848
0.198025,1.1993581781705511,-0.2784160363331306
0.19802625000000001,1.2023714379178845,-0.27505661310451596
0.1980275,1.2070587308580494,-0.27169718987597613
0.19802875,1.2097371839667868,-0.2683377666473605
0.19803,1.21241563707552,-0.26531428574161503
0.19803125,1.2160985100999369,-0.26329863180449026
0.1980325,1.219446576485846,-0.2602751508987448
0.19803375,1.2227946428717578,-0.25624384302440867
0.198035,1.2268123225347562,-0.25254847747301484
0.19803625,1.2301603889206714,-0.24986093889011135
0.1980375,1.2328388420293965,-0.24717340030721965
0.19803875,1.2345128752223713,-0.24448586172433096
0.19804,1.2385305548853713,-0.24213426546435202
0.19804125,1.242883041187048,-0.23776701526716582
0.1980425,1.244222267741436,-0.23541541900712074
0.19804375,1.249244367320184,-0.231048168810019
0.198045,1.2525924337061076,-0.2273528032585351
0.19804625,1.25527088681484,-0.22500120699849901
0.1980475,1.2592885664778402,-0.2219777260928118
0.19804875,1.2629714395023413,-0.21828236054134334
0.19805,1.2643106660567236,-0.21626670660416095
0.19805125,1.2696675722741633,-0.21189945640697014
0.1980525,1.2736852519371635,-0.2085400331784288
0.19805375,1.2760288984073103,-0.2058524945955322
0.198055,1.2803813847089816,-0.20148524439833834
0.19805625,1.2837294510948152,-0.19778987884694288
0.1980575,1.2874123241193092,-0.19611016723261537
0.19805875,1.2914300037823934,-0.19073509006685363
0.19806,1.2941084568911347,-0.18871943612967199
0.19806125,1.2984609431927183,-0.1853600129011307
0.1980625,1.3014742029400426,-0.18099276270393835
0.19806375,1.3051570759645392,-0.17830522412104538
0.198065,1.3085051423503713,-0.17561768553821355
0.19806625,1.3121880153748673,-0.17192231998674445
0.1980675,1.3155360817607775,-0.16755506978955123
0.19806875000000002,1.3195537614238582,-0.16419564656094754
0.19807,1.3229018278096916,-0.16184405030096863
0.19807125,1.3272543141113633,-0.15747680010377996
0.1980725,1.3302675738586864,-0.15378143455230506
0.19807375,1.3339504468831016,-0.15042201132376526
0.198075,1.3379681265461891,-0.14773447274086743
0.19807625,1.3416509995706865,-0.14336722254367507
0.1980775,1.3453338725951034,-0.14000779931513377
0.19807875,1.3496863588967756,-0.13597649144080257
0.19808,1.353369231921278,-0.13295301053503872
0.19808125000000001,1.357386911584356,-0.12824981801499163
0.1980825,1.360400171331606,-0.12489039478645028
0.19808375,1.3650874642718638,-0.12119502923497721
0.198085,1.3670963041034299,-0.11884343297493719
0.19808625,1.37211840368218,-0.11514806742354172
0.1980875,1.3754664700681003,-0.11111675954920687
0.19808875,1.3794841497311872,-0.1080932786434404
0.19809,1.3831670227556023,-0.1030541438006307
0.19809125,1.3865150891415141,-0.10070254754057004
0.1980925,1.390867575443185,-0.0963352973433823
