V25/elsysgk2/data/gain_test_amplifier_40khz.csv

#Digilent WaveForms Oscilloscope Acquisition
#Device Name: Discovery2
#Serial Number: SN:210321B27D4B
#Date Time: 2025-03-31 11:17:26.513
#Sample rate: 2.5e+07Hz
#Samples: 8192
#Trigger: Source: Channel 1 Type: Edge Condition: Rising Level: 0 V Hyst.: Auto HoldOff: 0 s
#Channel 1: Range: 500 mV/div Offset: 0 V Sample Mode: Average
#Channel 2: Range: 200 mV/div Offset: -2.8 V Sample Mode: Average
#Wavegen Channel 1: Running
#Mode: Simple
#Type: Sine
#Frequency: 40 kHz
#Period: 25 us
#Amplitude: 100 mV
#Offset: 0 V
#Symmetry: 50 %
#Phase: 0 °
#Power Supplies: ON
#Positive Supply: ON
#Voltage: 2.5 V
#Negative Supply: OFF
#Voltage: -1 V


Time (s),Channel 1 (V),Channel 2 (V)
-0.00016384,0.1286512709640478,3.130105488028302
-0.0001638,0.1363825464271652,3.128090205305275
-0.00016376,0.1286512709640477,3.128426085759115
-0.00016372,0.1283151285526081,3.132120770751326
-0.00016368,0.1380632584843646,3.135479575289705
-0.00016364,0.1252898468496489,3.13178489029749
-0.0001636,0.1316765526670068,3.133464292566679
-0.00016356,0.1306681254326876,3.134136053474354
-0.00016352,0.1353741191928455,3.134471933928192
-0.00016348,0.1303319830212473,3.133464292566679
-0.00016344,0.1299958406098073,3.132456651205166
-0.0001634,0.1303319830212471,3.133464292566679
-0.00016336,0.1299958406098073,3.133464292566679
-0.00016332,0.1269705589068484,3.133800173020516
-0.00016328,0.1303319830212473,3.133800173020516
-0.00016324,0.1283151285526091,3.133128412112842
-0.0001632,0.1310042678441258,3.134807814382029
-0.00016316,0.1283151285526079,3.132456651205166
-0.00016312,0.127978986141168,3.134471933928192
-0.00016308,0.1306681254326859,3.134136053474355
-0.00016304,0.1279789861411693,3.133800173020516
-0.000163,0.1299958406098073,3.132792531659003
-0.00016296,0.1246175620267692,3.131113129389814
-0.00016292,0.131004267844127,3.133464292566679
-0.00016288,0.1279789861411694,3.130777248935978
-0.00016284,0.1299958406098073,3.132456651205166
-0.0001628,0.1269705589068484,3.130105488028302
-0.00016276,0.1256259892610889,3.130105488028302
-0.00016272,0.1273067013182867,3.129097846666787
-0.00016268,0.1239452772038894,3.126746683489924
-0.00016264,0.1262982740839686,3.128090205305275
-0.0001626,0.1236091347924495,3.126074922582249
-0.00016256,0.1249537044382077,3.126410803036086
-0.00016252,0.1219284227352515,3.124059639859223
-0.00016248,0.1226007075581299,3.124731400766898
-0.00016244,0.1276428437297282,3.126074922582249
-0.0001624,0.119911568266612,3.123723759405384
-0.00016236,0.1226007075581287,3.123051998497709
-0.00016232,0.1209199955009305,3.120700835320845
-0.00016228,0.1152055745064524,3.117342030782468
-0.00016224,0.1172224289750917,3.119357313505494
-0.0001622,0.116886286563652,3.117677911236306
-0.00016216,0.1155417169178923,3.117342030782468
-0.00016212,0.1152055745064524,3.117677911236305
-0.00016208,0.1111718655691738,3.115326748059441
-0.00016204,0.1128525776263702,3.118685552597817
-0.000162,0.1061297293975755,3.114319106697928
-0.00016196,0.1145332896835726,3.116670269874792
-0.00016192,0.1098272959234142,3.11398322624409
-0.00016188,0.1054574445747011,3.110288541251879
-0.00016184,0.1172224289750917,3.118013791690143
-0.0001618,0.113524862449253,3.111967943521063
-0.00016176,0.1098272959234142,3.110288541251875
-0.00016172,0.1098272959234138,3.108945019436523
-0.00016168,0.108818868689095,3.107265617167336
-0.00016164,0.1081465838662148,3.107265617167335
-0.0001616,0.1071381566318952,3.103906812628958
-0.00016156,0.1081465838662148,3.103235051721283
-0.00016152,0.105457444574697,3.102899171267445
-0.00016148,0.1068020142204553,3.100883888544418
-0.00016144,0.1057935869861356,3.099876247182905
-0.0001614,0.1057935869861356,3.098196844913716
-0.00016136,0.1041128749289356,3.097189203552202
-0.00016132,0.1027683052831767,3.095509801283014
-0.00016128,0.1010875932259772,3.093494518559988
-0.00016124,0.1010875932259772,3.092822757652312
-0.0001612,0.1014237356374157,3.091479235836961
-0.00016116,0.09839845393445815,3.089799833567773
-0.00016112,0.0994068811687778,3.089463953113935
-0.00016108,0.09873459634589803,3.088120431298584
-0.00016104,0.09705388428869845,3.086776909483233
-0.000161,0.09671774187725887,3.08576926812172
-0.00016096,0.09671774187725872,3.083753985398693
-0.00016092,0.09638159946581883,3.082410463583343
-0.00016088,0.09402860258573963,3.081402822221829
-0.00016084,0.09335631776286017,3.079387539498804
-0.0001608,0.0923478905285402,3.078715778591127
-0.00016076,0.08999489364846101,3.076364615414263
-0.00016072,0.09201174811710032,3.075692854506588
-0.00016068,0.08999489364846193,3.073005810875888
-0.00016064,0.08999489364846101,3.073005810875886
-0.0001606,0.08797803917982169,3.069982886791347
-0.00016056,0.09033103605990089,3.068303484522158
-0.00016052,0.08562504229974434,3.066288201799132
-0.00016048,0.08965875123702112,3.066959962706807
-0.00016044,0.08159133336246388,3.063937038622267
-0.0001604,0.08394433024254308,3.062929397260754
-0.00016036,0.08293590300822311,3.060914114537727
-0.00016032,0.08226361818534396,3.060914114537727
-0.00016028,0.08226361818534365,3.058227070907026
-0.00016024,0.07789376683662515,3.056211788183999
-0.0001602,0.08293590300822021,3.055204146822485
-0.00016016,0.07587691236798903,3.052852983645622
-0.00016012,0.08091904853958411,3.053860625007135
-0.00016008,0.07621305477942572,3.049158298653407
-0.00016004,0.0765491971908656,3.048822418199569
-0.00016,0.07453234272222721,3.045799494115031
-0.00015996,0.0741962003107864,3.044120091845841
-0.00015992,0.0741962003107864,3.041768928668977
-0.00015988,0.07251548825358697,3.03975364594595
-0.00015984,0.07654919719086255,3.040425406853623
-0.0001598,0.06982634896206789,3.035387200046059
-0.00015976,0.0765491971908656,3.03673072186141
-0.00015972,0.07352391548790663,3.03236427596152
-0.00015968,0.07083477619638648,3.031692515053843
-0.00015964,0.06848177931630942,3.029005471423144
-0.0001596,0.06680106725910893,3.027997830061629
-0.00015956,0.06780949449342859,3.026654308246278
-0.00015952,0.06612878243623115,3.024974905977091
-0.00015948,0.07049863378494568,3.027997830061628
-0.00015944,0.06243121591039041,3.023295503707901
-0.0001594,0.06041436144175111,3.02195198189255
-0.00015936,0.06007821903031122,3.01892905780801
-0.00015932,0.05638065250447417,3.018257296900335
-0.00015928,0.06075050385319099,3.017921416446497
-0.00015924,0.05638065250447249,3.017585535992659
-0.0001592,0.05638065250447249,3.015906133723471
-0.00015916,0.05537222527015161,3.01590613372347
-0.00015912,0.05268308597863375,3.014562611908119
-0.00015908,0.05201080115575397,3.012547329185093
-0.00015904,0.05167465874431409,3.014562611908119
-0.000159,0.04965780427567493,3.009860285554392
-0.00015896,0.04999394668711452,3.010867926915904
-0.00015892,0.05234694356719386,3.008180883285203
-0.00015888,0.04596023774983604,3.005493839654501
-0.00015884,0.05066623150999153,3.005829720108336
-0.0001588,0.04427952569263952,3.000455632846937
-0.00015876,0.04764094980703547,3.001799154662286
-0.00015872,0.04360724086975685,2.99810446967007
-0.00015868,0.0446156681040765,2.997768589216233
-0.00015864,0.04394338328119703,2.995753306493207
-0.0001586,0.04058195916679787,2.992730382408667
-0.00015856,0.04091810157823776,2.99071509968564
-0.00015852,0.03722053505239903,2.989371577870289
-0.00015848,0.04091810157823608,2.988699816962612
-0.00015844,0.03722053505239903,2.984669251516561
-0.0001584,0.0378928198752788,2.985005131970399
-0.00015836,0.03688439264095914,2.981310446978183
-0.00015832,0.03453139576087948,2.980638686070507
-0.00015828,0.03352296852656075,2.978287522893645
-0.00015824,0.03251454129224064,2.977279881532131
-0.0001582,0.03285068370368052,2.974928718355267
-0.00015816,0.02814468994352335,2.971905794270727
-0.00015812,0.03083382923503998,2.971569913816889
-0.00015808,0.02848083235496201,2.96854698973235
-0.00015804,0.02948925958928167,2.967203467916999
-0.000158,0.03755667746383891,2.968211109278512
-0.00015796,0.0177242751888947,2.956455293394196
-0.00015792,0.02814468994352213,2.963508782924784
-0.00015788,0.0241109810062435,2.956791173848029
-0.00015784,0.01839656001176545,2.953768249763489
-0.0001578,0.02310255377192568,2.957127054301866
-0.00015776,0.02713626270920247,2.955447652032678
-0.00015772,0.02377483859480362,2.953768249763489
-0.00015768,0.02243026894904408,2.951417086586625
-0.00015764,0.01940498724608266,2.946714760232895
-0.0001576,0.01402670866304694,2.943355955694519
-0.00015756,0.01839656001176545,2.942684194786844
-0.00015752,0.01402670866304694,2.940668912063817
-0.00015748,0.01503513589736583,2.939997151156141
-0.00015744,0.01335442384016794,2.938317748886954
-0.0001574,0.01032914213720821,2.935966585710089
-0.00015736,0.009656857314328436,2.935966585710089
-0.00015732,0.006631575611369468,2.933615422533225
-0.00015728,0.01200985419440519,2.934623063894738
-0.00015724,0.008648430080008779,2.928241335271821
-0.0001572,0.004278578731290271,2.929248976633334
-0.00015716,0.007303860434249239,2.926561933002632
-0.00015712,0.003942436319850539,2.925554291641119
-0.00015708,0.004278578731290271,2.924210769825768
-0.00015704,-0.0007635574403080074,2.920851965287391
-0.000157,0.004614721142730156,2.922195487102742
-0.00015696,-0.001099699851747128,2.917493160749014
-0.00015692,0.0005810122054515336,2.918500802110527
-0.00015688,-0.001099699851747893,2.914470236664474
-0.00015684,-0.002108127086067548,2.914470236664474
-0.0001568,-0.001435842263189765,2.911783193033771
-0.00015676,-0.005805693611904299,2.908424388495396
-0.00015672,-0.002780411908947319,2.909432029856908
-0.00015668,-0.005469551200466401,2.90607322531853
-0.00015664,-0.006141836023346172,2.904729703503179
-0.0001566,-0.008494832903424298,2.901035018510966
-0.00015656,-0.007822548080545597,2.900699138057127
-0.00015652,-0.00983940254918491,2.898012094426424
-0.00015648,-0.01219239942926411,2.896668572611074
-0.00015644,-0.0142092538979025,2.894653289888048
-0.0001564,-0.0145453963093433,2.893309768072696
-0.00015636,-0.01420925389790342,2.893981528980372
-0.00015632,-0.01824296283518204,2.892302126711183
-0.00015628,-0.01757067801230303,2.892302126711183
-0.00015624,-0.0192513900695017,2.89129448534967
-0.0001562,-0.01891524765806181,2.89129448534967
-0.00015616,-0.0192513900695017,2.889615083080481
-0.00015612,-0.016898393189428,2.888943322172805
-0.00015608,-0.02899952000125287,2.887599800357455
-0.00015604,-0.01958753248094158,2.889615083080481
-0.000156,-0.02462966865253986,2.887935680811292
-0.00015596,-0.0300079472355742,2.883233354457568
-0.00015592,-0.02160438694958471,2.890622724441991
-0.00015588,-0.02093210212670112,2.885920398088266
-0.00015584,-0.0259742382982994,2.883569234911402
-0.0001558,-0.02462966865253986,2.883233354457564
-0.00015576,-0.02664652312117826,2.881553952188376
-0.00015572,-0.02698266553261906,2.881218071734538
-0.00015568,-0.02799109276693871,2.880210430373025
-0.00015564,-0.02799109276693871,2.878531028103836
-0.0001556,-0.02899952000125852,2.87785926719616
-0.00015556,-0.02933566241269825,2.877523386742323
-0.00015552,-0.03101637446989768,2.874836343111621
-0.00015548,-0.03303322893853699,2.87349282129627
-0.00015544,-0.035050083407176,2.871141658119405
-0.0001554,-0.03437779858429683,2.869462255850218
-0.00015536,-0.03572236823005608,2.867111092673353
-0.00015532,-0.0374030802872555,2.865095809950327
-0.00015528,-0.03740308028725611,2.862408766319624
-0.00015524,-0.03874764993301443,2.861401124958112
-0.0001552,-0.03941993475589481,2.858714081327409
-0.00015516,-0.03941993475589481,2.857034679058221
-0.00015512,-0.04110064681309424,2.854683515881356
-0.00015508,-0.04244521645885316,2.853004113612169
-0.00015504,-0.04311750128173355,2.850652950435304
-0.000155,-0.0421090740474139,2.848973548166115
-0.00015496,-0.0421090740474139,2.846622384989251
-0.00015492,-0.04177293163597431,2.844607102266223
-0.00015488,-0.04244521645885378,2.842591819543198
-0.00015484,-0.0441259285160532,2.841248297727847
-0.0001548,-0.04244521645885378,2.839568895458658
-0.00015476,-0.04244521645885454,2.838561254097144
-0.00015472,-0.04412592851605244,2.836210090920282
-0.00015468,-0.04513435575037286,2.835874210466443
-0.00015464,-0.04681506780757229,2.832515405928066
-0.0001546,-0.04984034951052942,2.83184364502039
-0.00015456,-0.04580664057325446,2.83184364502039
-0.00015452,-0.0511849191562908,2.828484840482013
-0.00015448,-0.04849577986477172,2.828148960028175
-0.00015444,-0.0511849191562908,2.825126035943636
-0.0001544,-0.047151210219014,2.826133677305148
-0.00015436,-0.05152106156773068,2.822103111859096
-0.00015432,-0.05185720397917057,2.822103111859096
-0.00015428,-0.04984034951053126,2.820423709589907
-0.00015424,-0.0525294888020482,2.82143135095142
-0.0001542,-0.04782349504189194,2.819416068228394
-0.00015416,-0.05185720397917057,2.816729024597692
-0.00015412,-0.05152106156773068,2.816729024597692
-0.00015408,-0.05353791603636968,2.815049622328503
-0.00015404,-0.05286563121349053,2.813706100513153
-0.000154,-0.0555547705050093,2.811354937336288
-0.00015396,-0.05723548256220873,2.811019056882451
-0.00015392,-0.05555477050501113,2.809339654613261
-0.00015388,-0.0595884794422861,2.807660252344074
-0.00015384,-0.05723548256220873,2.807996132797911
-0.0001538,-0.06026076426516769,2.804301447805696
-0.00015376,-0.05925233703084804,2.804301447805696
-0.00015372,-0.0629499035566851,2.801950284628833
-0.00015368,-0.06093304908804747,2.801278523721156
-0.00015364,-0.06227761873380701,2.798927360544292
-0.0001536,-0.06294990355668678,2.797919719182779
-0.00015356,-0.06026076426516815,2.796576197367426
-0.00015352,-0.06126919149948735,2.793889153736726
-0.00015348,-0.05925233703084804,2.794225034190564
-0.00015344,-0.06496675802532609,2.791537990559862
-0.0001534,-0.06261376114524704,2.790866229652186
-0.00015336,-0.06294990355668678,2.789186827382998
-0.00015332,-0.06261376114524689,2.78885094692916
-0.00015328,-0.06227761873380701,2.788515066475322
-0.00015324,-0.06395833079100674,2.787171544659971
-0.0001532,-0.0646306156138859,2.787171544659971
-0.00015316,-0.06429447320244631,2.786499783752296
-0.00015312,-0.06261376114524689,2.787507425113809
-0.00015308,-0.06664747008252551,2.784148620575432
-0.00015304,-0.06563904284820632,2.78717154465997
-0.000153,-0.06463061561388621,2.784484501029269
-0.00015296,-0.06631132767108563,2.786163903298458
-0.00015292,-0.06429447320244631,2.785492142390782
-0.00015288,-0.07000889419692177,2.783476859667757
-0.00015284,-0.06429447320244631,2.78582802284462
-0.0001528,-0.06866432455116482,2.782469218306243
-0.00015276,-0.06362218837956655,2.783812740121594
-0.00015272,-0.06631132767108487,2.782805098760081
-0.00015268,-0.06463061561388621,2.782805098760081
-0.00015264,-0.06563904284820586,2.78146157694473
-0.0001526,-0.06765589731684517,2.780118055129379
-0.00015256,-0.06160533391093029,2.780118055129378
-0.00015252,-0.06832818213972189,2.778102772406353
-0.00015248,-0.06496675802532609,2.779110413767865
-0.00015244,-0.06597518525964574,2.776759250591001
-0.0001524,-0.06731975490540529,2.776423370137163
-0.00015236,-0.06731975490540529,2.775079848321813
-0.00015232,-0.06832818213972494,2.773736326506462
-0.00015228,-0.06900046696260471,2.773064565598786
-0.00015224,-0.06967275178548449,2.77104928287576
-0.0001522,-0.06866432455116528,2.770713402421922
-0.00015216,-0.07034503660836425,2.769369880606571
-0.00015212,-0.06933660937404459,2.768698119698896
-0.00015208,-0.06328604596812666,2.767690478337383
-0.00015204,-0.07639560001427684,2.765339315160519
-0.000152,-0.06463061561388621,2.767354597883545
-0.00015196,-0.07202574866556367,2.763324032437492
-0.00015192,-0.07706788483716195,2.759293466991439
-0.00015188,-0.0639583307910075,2.768362239245055
-0.00015184,-0.06631132767108457,2.762988151983657
-0.0001518,-0.07000889419692437,2.761980510622141
-0.00015176,-0.06698361249396541,2.761980510622141
-0.00015172,-0.06832818213972509,2.760972869260627
-0.00015168,-0.06866432455116467,2.759629347445277
-0.00015164,-0.06900046696260471,2.759629347445277
-0.0001516,-0.06664747008252551,2.759293466991439
-0.00015156,-0.06731975490540529,2.75761406472225
-0.00015152,-0.06496675802532716,2.75761406472225
-0.00015148,-0.06731975490540529,2.755262901545386
-0.00015144,-0.06664747008252551,2.756606423360737
-0.0001514,-0.06463061561388621,2.755598781999224
-0.00015136,-0.06664747008252414,2.755934662453062
-0.00015132,-0.06362218837956655,2.756270542906899
-0.00015128,-0.06832818213972494,2.752575857914684
-0.00015124,-0.06362218837956655,2.755262901545386
-0.0001512,-0.06698361249396403,2.752239977460847
-0.00015116,-0.06395833079100781,2.753247618822359
-0.00015112,-0.06563904284820586,2.752239977460846
-0.00015108,-0.06563904284820586,2.751232336099333
-0.00015104,-0.06395833079100674,2.750560575191658
-0.000151,-0.0646306156138859,2.749552933830145
-0.00015096,-0.06194147632236712,2.75022469473782
-0.00015092,-0.06328604596812666,2.748545292468631
-0.00015088,-0.06126919149948735,2.749552933830144
-0.00015084,-0.06227761873380655,2.747873531560957
-0.0001508,-0.06328604596812666,2.748209412014794
-0.00015076,-0.05992462185372781,2.748881172922469
-0.00015072,-0.06059690667660758,2.748545292468631
-0.00015068,-0.05958847944228869,2.747873531560956
-0.00015064,-0.06126919149948735,2.747873531560956
-0.0001506,-0.05824390979652839,2.747873531560956
-0.00015056,-0.05925233703084804,2.748209412014794
-0.00015052,-0.05891619461940846,2.748881172922468
-0.00015048,-0.05958847944228762,2.747201770653281
-0.00015044,-0.05891619461940815,2.748209412014794
-0.0001504,-0.05689934015076884,2.748881172922469
-0.00015036,-0.05891619461940724,2.748209412014794
-0.00015032,-0.05689934015076976,2.749217053376306
-0.00015028,-0.05891619461940815,2.748881172922469
-0.00015024,-0.06664747008252551,2.746194129291767
-0.0001502,-0.0441259285160532,2.755262901545386
-0.00015016,-0.05824390979652197,2.749217053376309
-0.00015012,-0.0555547705050093,2.752575857914684
-0.00015008,-0.04580664057325263,2.756606423360737
-0.00015004,-0.0555547705050093,2.752575857914684
-0.00015,-0.06362218837956243,2.752239977460848
-0.00014996,-0.05454634327068965,2.756606423360737
-0.00014992,-0.05320177362493011,2.755934662453062
-0.00014988,-0.05353791603636999,2.757278184268412
-0.00014984,-0.05051263433341133,2.758285825629926
-0.0001498,-0.05118491915629049,2.758285825629926
-0.00014976,-0.05084877674485091,2.759629347445277
-0.00014972,-0.05017649192197114,2.760301108352952
-0.00014968,-0.04950420709909122,2.761308749714465
-0.00014964,-0.04916806468765163,2.761644630168303
-0.0001496,-0.04849577986477172,2.762652271529817
-0.00014956,-0.04681506780757229,2.76365991289133
-0.00014952,-0.0464789253961324,2.764331673799005
-0.00014948,-0.0464789253961324,2.765339315160518
-0.00014944,-0.04580664057325263,2.766346956522031
-0.0001494,-0.04479821333893298,2.767018717429707
-0.00014936,-0.04345364369317344,2.767354597883545
-0.00014932,-0.04345364369317374,2.76802635879122
-0.00014928,-0.0441259285160532,2.768362239245058
-0.00014924,-0.04311750128173355,2.769705761060409
-0.0001492,-0.0421090740474139,2.770377521968084
-0.00014916,-0.04110064681309454,2.771721043783436
-0.00014912,-0.04177293163597401,2.772728685144949
-0.00014908,-0.04076450440165435,2.773064565598786
-0.00014904,-0.04076450440165435,2.774072206960299
-0.000149,-0.04042836199021493,2.774743967867976
-0.00014896,-0.04143678922453366,2.776087489683325
-0.00014892,-0.03841150752157516,2.777431011498677
-0.00014888,-0.03773922269869538,2.77843865286019
-0.00014884,-0.03841150752157516,2.780118055129379
-0.0001488,-0.03471394099573809,2.780118055129379
-0.00014876,-0.04009221957877458,2.78146157694473
-0.00014872,-0.03404165617285665,2.783140979213918
-0.00014868,-0.03773922269869538,2.783812740121594
-0.00014864,-0.03202480170421994,2.78582802284462
-0.0001486,-0.03706693787581562,2.783812740121594
-0.00014856,-0.03202480170421734,2.786163903298458
-0.00014852,-0.03236094411565722,2.783812740121594
-0.00014848,-0.0323609441156557,2.78717154465997
-0.00014844,-0.02899952000125837,2.785492142390782
